{
    "variable": [
        {
            "id": "baseUrl",
            "key": "baseUrl",
            "type": "string",
            "name": "string",
            "value": "http:\/\/127.0.0.1:80"
        }
    ],
    "info": {
        "name": "Laravel",
        "_postman_id": "82b42a0d-3a31-4b26-8cff-842146ba1eca",
        "description": "",
        "schema": "https:\/\/schema.getpostman.com\/json\/collection\/v2.1.0\/collection.json"
    },
    "item": [
        {
            "name": "Endpoints",
            "description": "",
            "item": [
                {
                    "name": "GET api\/user",
                    "request": {
                        "url": {
                            "host": "{{baseUrl}}",
                            "path": "api\/user",
                            "query": [],
                            "raw": "{{baseUrl}}\/api\/user"
                        },
                        "method": "GET",
                        "header": [
                            {
                                "key": "Content-Type",
                                "value": "application\/json"
                            },
                            {
                                "key": "Accept",
                                "value": "application\/json"
                            }
                        ],
                        "body": null,
                        "description": ""
                    },
                    "response": [
                        {
                            "header": [
                                {
                                    "key": "cache-control",
                                    "value": "no-cache, private"
                                },
                                {
                                    "key": "content-type",
                                    "value": "application\/json"
                                },
                                {
                                    "key": "access-control-allow-origin",
                                    "value": "http:\/\/localhost:3000"
                                },
                                {
                                    "key": "access-control-allow-credentials",
                                    "value": "true"
                                }
                            ],
                            "code": 401,
                            "body": "{\"message\":\"Unauthenticated.\"}",
                            "name": ""
                        }
                    ]
                },
                {
                    "name": "\u0420\u0435\u0433\u0438\u0441\u0442\u0440\u0430\u0446\u0438\u044f \u043f\u043e\u043b\u044c\u0437\u043e\u0432\u0430\u0442\u0435\u043b\u044f.",
                    "request": {
                        "url": {
                            "host": "{{baseUrl}}",
                            "path": "api\/v1\/register",
                            "query": [],
                            "raw": "{{baseUrl}}\/api\/v1\/register"
                        },
                        "method": "POST",
                        "header": [
                            {
                                "key": "Content-Type",
                                "value": "application\/json"
                            },
                            {
                                "key": "Accept",
                                "value": "application\/json"
                            }
                        ],
                        "body": {
                            "mode": "raw",
                            "raw": "{\"name\":\"optio\",\"email\":\"lockman.edyth@example.net\",\"password\":\"V!m;B{G@-k]2\",\"password_confirmation\":null}"
                        },
                        "description": "",
                        "auth": {
                            "type": "noauth"
                        }
                    },
                    "response": []
                },
                {
                    "name": "\u0410\u0432\u0442\u043e\u0440\u0438\u0437\u0430\u0446\u0438\u044f \u043f\u043e\u043b\u044c\u0437\u043e\u0432\u0430\u0442\u0435\u043b\u044f.",
                    "request": {
                        "url": {
                            "host": "{{baseUrl}}",
                            "path": "api\/v1\/login",
                            "query": [],
                            "raw": "{{baseUrl}}\/api\/v1\/login"
                        },
                        "method": "POST",
                        "header": [
                            {
                                "key": "Content-Type",
                                "value": "application\/json"
                            },
                            {
                                "key": "Accept",
                                "value": "application\/json"
                            }
                        ],
                        "body": {
                            "mode": "raw",
                            "raw": "{\"email\":\"blair92@example.org\",\"password\":\"fJ{yFzY\"}"
                        },
                        "description": "",
                        "auth": {
                            "type": "noauth"
                        }
                    },
                    "response": []
                },
                {
                    "name": "\u041f\u043e\u043b\u0443\u0447\u0438\u0442\u044c \u0432\u0441\u0435 \u043e\u0431\u044a\u044f\u0432\u043b\u0435\u043d\u0438\u044f \u043f\u043e\u0441\u0442\u0440\u0430\u043d\u0438\u0447\u043d\u043e.",
                    "request": {
                        "url": {
                            "host": "{{baseUrl}}",
                            "path": "api\/v1\/abs",
                            "query": [
                                {
                                    "key": "page",
                                    "value": "1",
                                    "description": "",
                                    "disabled": false
                                },
                                {
                                    "key": "sort_by_price",
                                    "value": "desc",
                                    "description": "",
                                    "disabled": false
                                },
                                {
                                    "key": "sort_by_created_at",
                                    "value": "desc",
                                    "description": "",
                                    "disabled": false
                                }
                            ],
                            "raw": "{{baseUrl}}\/api\/v1\/abs?page=1&sort_by_price=desc&sort_by_created_at=desc"
                        },
                        "method": "GET",
                        "header": [
                            {
                                "key": "Content-Type",
                                "value": "application\/json"
                            },
                            {
                                "key": "Accept",
                                "value": "application\/json"
                            }
                        ],
                        "body": {
                            "mode": "raw",
                            "raw": "{\"page\":20,\"sort_by_price\":\"inventore\",\"sort_by_created_at\":\"et\"}"
                        },
                        "description": ""
                    },
                    "response": [
                        {
                            "header": [
                                {
                                    "key": "cache-control",
                                    "value": "no-cache, private"
                                },
                                {
                                    "key": "content-type",
                                    "value": "application\/json"
                                },
                                {
                                    "key": "access-control-allow-origin",
                                    "value": "http:\/\/localhost:3000"
                                },
                                {
                                    "key": "access-control-allow-credentials",
                                    "value": "true"
                                }
                            ],
                            "code": 200,
                            "body": "{\"abs\":{\"data\":[],\"meta\":{\"current_page\":20,\"first_page_url\":\"http:\\\/\\\/127.0.0.1\\\/api\\\/v1\\\/abs?page=1\",\"from\":null,\"last_page\":11,\"last_page_url\":\"http:\\\/\\\/127.0.0.1\\\/api\\\/v1\\\/abs?page=11\",\"next_page_url\":null,\"path\":\"http:\\\/\\\/127.0.0.1\\\/api\\\/v1\\\/abs\",\"per_page\":10,\"prev_page_url\":\"http:\\\/\\\/127.0.0.1\\\/api\\\/v1\\\/abs?page=19\",\"to\":null,\"total\":106}}}",
                            "name": ""
                        }
                    ]
                },
                {
                    "name": "\u0421\u043e\u0437\u0434\u0430\u0442\u044c \u043e\u0431\u044a\u044f\u0432\u043b\u0435\u043d\u0438\u0435.",
                    "request": {
                        "url": {
                            "host": "{{baseUrl}}",
                            "path": "api\/v1\/abs",
                            "query": [],
                            "raw": "{{baseUrl}}\/api\/v1\/abs"
                        },
                        "method": "POST",
                        "header": [
                            {
                                "key": "Content-Type",
                                "value": "application\/json"
                            },
                            {
                                "key": "Accept",
                                "value": "application\/json"
                            }
                        ],
                        "body": {
                            "mode": "raw",
                            "raw": "{\"name\":\"urpfu\",\"description\":\"Et omnis perspiciatis vel ipsum aut inventore molestiae.\",\"photos\":[\"mollitia\"],\"price\":\"quia\"}"
                        },
                        "description": ""
                    },
                    "response": []
                },
                {
                    "name": "\u041f\u043e\u043b\u0443\u0447\u0438\u0442\u044c \u043e\u0431\u044a\u044f\u0432\u043b\u0435\u043d\u0438\u0435.",
                    "request": {
                        "url": {
                            "host": "{{baseUrl}}",
                            "path": "api\/v1\/abs\/:id",
                            "query": [
                                {
                                    "key": "fields[0]",
                                    "value": "quia",
                                    "description": "",
                                    "disabled": false
                                }
                            ],
                            "raw": "{{baseUrl}}\/api\/v1\/abs\/:id?fields[0]=quia",
                            "variable": [
                                {
                                    "id": "id",
                                    "key": "id",
                                    "value": "1",
                                    "description": "The ID of the ab."
                                }
                            ]
                        },
                        "method": "GET",
                        "header": [
                            {
                                "key": "Content-Type",
                                "value": "application\/json"
                            },
                            {
                                "key": "Accept",
                                "value": "application\/json"
                            }
                        ],
                        "body": {
                            "mode": "raw",
                            "raw": "[]"
                        },
                        "description": ""
                    },
                    "response": [
                        {
                            "header": [
                                {
                                    "key": "cache-control",
                                    "value": "no-cache, private"
                                },
                                {
                                    "key": "content-type",
                                    "value": "application\/json"
                                },
                                {
                                    "key": "access-control-allow-origin",
                                    "value": "http:\/\/localhost:3000"
                                },
                                {
                                    "key": "access-control-allow-credentials",
                                    "value": "true"
                                }
                            ],
                            "code": 200,
                            "body": "{\"ab\":{\"abId\":1,\"name\":\"johkvmpxr\",\"price\":\"1234.00\",\"photoLink\":{\"id\":1,\"ab_id\":1,\"link\":\"1\",\"created_at\":\"2024-07-29T05:17:25.000000Z\",\"updated_at\":\"2024-07-29T05:17:25.000000Z\"}}}",
                            "name": ""
                        }
                    ]
                },
                {
                    "name": "Update the specified resource in storage.",
                    "request": {
                        "url": {
                            "host": "{{baseUrl}}",
                            "path": "api\/v1\/abs\/:id",
                            "query": [],
                            "raw": "{{baseUrl}}\/api\/v1\/abs\/:id",
                            "variable": [
                                {
                                    "id": "id",
                                    "key": "id",
                                    "value": "1",
                                    "description": "The ID of the ab."
                                }
                            ]
                        },
                        "method": "PUT",
                        "header": [
                            {
                                "key": "Content-Type",
                                "value": "application\/json"
                            },
                            {
                                "key": "Accept",
                                "value": "application\/json"
                            }
                        ],
                        "body": null,
                        "description": ""
                    },
                    "response": []
                },
                {
                    "name": "Remove the specified resource from storage.",
                    "request": {
                        "url": {
                            "host": "{{baseUrl}}",
                            "path": "api\/v1\/abs\/:id",
                            "query": [],
                            "raw": "{{baseUrl}}\/api\/v1\/abs\/:id",
                            "variable": [
                                {
                                    "id": "id",
                                    "key": "id",
                                    "value": "1",
                                    "description": "The ID of the ab."
                                }
                            ]
                        },
                        "method": "DELETE",
                        "header": [
                            {
                                "key": "Content-Type",
                                "value": "application\/json"
                            },
                            {
                                "key": "Accept",
                                "value": "application\/json"
                            }
                        ],
                        "body": null,
                        "description": ""
                    },
                    "response": []
                }
            ]
        }
    ],
    "auth": {
        "type": "bearer",
        "bearer": [
            {
                "key": "Authorization",
                "type": "string"
            }
        ]
    }
}