## Autogenerated by Scribe. DO NOT MODIFY.

name: Endpoints
description: ''
endpoints:
  -
    httpMethods:
      - GET
    uri: api/user
    metadata:
      groupName: Endpoints
      groupDescription: ''
      subgroup: ''
      subgroupDescription: ''
      title: ''
      description: ''
      authenticated: true
      custom: []
    headers:
      Authorization: 'Bearer {YOUR_AUTH_KEY}'
      Content-Type: application/json
      Accept: application/json
    urlParameters: []
    cleanUrlParameters: []
    queryParameters: []
    cleanQueryParameters: []
    bodyParameters: []
    cleanBodyParameters: []
    fileParameters: []
    responses:
      -
        status: 401
        content: '{"message":"Unauthenticated."}'
        headers:
          cache-control: 'no-cache, private'
          content-type: application/json
          access-control-allow-origin: 'http://localhost:3000'
          access-control-allow-credentials: 'true'
        description: null
        custom: []
    responseFields: []
    auth:
      - headers
      - Authorization
      - 'Bearer edE8D4g61aVbZhk6aPcf5v3'
    controller: null
    method: null
    route: null
    custom: []
  -
    httpMethods:
      - POST
    uri: api/v1/register
    metadata:
      groupName: Endpoints
      groupDescription: ''
      subgroup: ''
      subgroupDescription: ''
      title: 'Регистрация пользователя.'
      description: ''
      authenticated: false
      custom: []
    headers:
      Content-Type: application/json
      Accept: application/json
    urlParameters: []
    cleanUrlParameters: []
    queryParameters: []
    cleanQueryParameters: []
    bodyParameters:
      name:
        name: name
        description: ''
        required: true
        example: optio
        type: string
        enumValues: []
        exampleWasSpecified: false
        custom: []
      email:
        name: email
        description: 'Must be a valid email address.'
        required: true
        example: lockman.edyth@example.net
        type: string
        enumValues: []
        exampleWasSpecified: false
        custom: []
      password:
        name: password
        description: ''
        required: true
        example: 'V!m;B{G@-k]2'
        type: string
        enumValues: []
        exampleWasSpecified: false
        custom: []
      password_confirmation:
        name: password_confirmation
        description: ''
        required: true
        example: null
        type: string
        enumValues: []
        exampleWasSpecified: false
        custom: []
    cleanBodyParameters:
      name: optio
      email: lockman.edyth@example.net
      password: 'V!m;B{G@-k]2'
      password_confirmation: null
    fileParameters: []
    responses: []
    responseFields: []
    auth: []
    controller: null
    method: null
    route: null
    custom: []
  -
    httpMethods:
      - POST
    uri: api/v1/login
    metadata:
      groupName: Endpoints
      groupDescription: ''
      subgroup: ''
      subgroupDescription: ''
      title: 'Авторизация пользователя.'
      description: ''
      authenticated: false
      custom: []
    headers:
      Content-Type: application/json
      Accept: application/json
    urlParameters: []
    cleanUrlParameters: []
    queryParameters: []
    cleanQueryParameters: []
    bodyParameters:
      email:
        name: email
        description: 'Must be a valid email address.'
        required: true
        example: blair92@example.org
        type: string
        enumValues: []
        exampleWasSpecified: false
        custom: []
      password:
        name: password
        description: ''
        required: true
        example: 'fJ{yFzY'
        type: string
        enumValues: []
        exampleWasSpecified: false
        custom: []
    cleanBodyParameters:
      email: blair92@example.org
      password: 'fJ{yFzY'
    fileParameters: []
    responses: []
    responseFields: []
    auth: []
    controller: null
    method: null
    route: null
    custom: []
  -
    httpMethods:
      - GET
    uri: api/v1/abs
    metadata:
      groupName: Endpoints
      groupDescription: ''
      subgroup: ''
      subgroupDescription: ''
      title: 'Получить все объявления постранично.'
      description: ''
      authenticated: true
      custom: []
    headers:
      Authorization: 'Bearer {YOUR_AUTH_KEY}'
      Content-Type: application/json
      Accept: application/json
    urlParameters: []
    cleanUrlParameters: []
    queryParameters:
      page:
        name: page
        description: ''
        required: false
        example: 1
        type: integer
        enumValues: []
        exampleWasSpecified: false
        custom: []
      sort_by_price:
        name: sort_by_price
        description: ''
        required: false
        example: desc
        type: string
        enumValues: []
        exampleWasSpecified: false
        custom: []
      sort_by_created_at:
        name: sort_by_created_at
        description: ''
        required: false
        example: desc
        type: string
        enumValues: []
        exampleWasSpecified: false
        custom: []
    cleanQueryParameters:
      page: 1
      sort_by_price: desc
      sort_by_created_at: desc
    bodyParameters:
      page:
        name: page
        description: ''
        required: false
        example: 20
        type: integer
        enumValues: []
        exampleWasSpecified: false
        custom: []
      sort_by_price:
        name: sort_by_price
        description: ''
        required: false
        example: inventore
        type: string
        enumValues: []
        exampleWasSpecified: false
        custom: []
      sort_by_created_at:
        name: sort_by_created_at
        description: ''
        required: false
        example: et
        type: string
        enumValues: []
        exampleWasSpecified: false
        custom: []
    cleanBodyParameters:
      page: 20
      sort_by_price: inventore
      sort_by_created_at: et
    fileParameters: []
    responses:
      -
        status: 200
        content: '{"abs":{"data":[],"meta":{"current_page":20,"first_page_url":"http:\/\/127.0.0.1\/api\/v1\/abs?page=1","from":null,"last_page":11,"last_page_url":"http:\/\/127.0.0.1\/api\/v1\/abs?page=11","next_page_url":null,"path":"http:\/\/127.0.0.1\/api\/v1\/abs","per_page":10,"prev_page_url":"http:\/\/127.0.0.1\/api\/v1\/abs?page=19","to":null,"total":106}}}'
        headers:
          cache-control: 'no-cache, private'
          content-type: application/json
          access-control-allow-origin: 'http://localhost:3000'
          access-control-allow-credentials: 'true'
        description: null
        custom: []
    responseFields: []
    auth:
      - headers
      - Authorization
      - 'Bearer vk61bahe5a4cdEDVP3Z68fg'
    controller: null
    method: null
    route: null
    custom: []
  -
    httpMethods:
      - POST
    uri: api/v1/abs
    metadata:
      groupName: Endpoints
      groupDescription: ''
      subgroup: ''
      subgroupDescription: ''
      title: 'Создать объявление.'
      description: ''
      authenticated: true
      custom: []
    headers:
      Authorization: 'Bearer {YOUR_AUTH_KEY}'
      Content-Type: application/json
      Accept: application/json
    urlParameters: []
    cleanUrlParameters: []
    queryParameters: []
    cleanQueryParameters: []
    bodyParameters:
      name:
        name: name
        description: 'Must not be greater than 200 characters.'
        required: true
        example: urpfu
        type: string
        enumValues: []
        exampleWasSpecified: false
        custom: []
      description:
        name: description
        description: 'Must not be greater than 1000 characters.'
        required: true
        example: 'Et omnis perspiciatis vel ipsum aut inventore molestiae.'
        type: string
        enumValues: []
        exampleWasSpecified: false
        custom: []
      photos:
        name: photos
        description: ''
        required: true
        example:
          - mollitia
        type: 'string[]'
        enumValues: []
        exampleWasSpecified: false
        custom: []
      price:
        name: price
        description: ''
        required: true
        example: quia
        type: string
        enumValues: []
        exampleWasSpecified: false
        custom: []
    cleanBodyParameters:
      name: urpfu
      description: 'Et omnis perspiciatis vel ipsum aut inventore molestiae.'
      photos:
        - mollitia
      price: quia
    fileParameters: []
    responses: []
    responseFields: []
    auth:
      - headers
      - Authorization
      - 'Bearer hfDavd4c6k1ZPabVe53E8g6'
    controller: null
    method: null
    route: null
    custom: []
  -
    httpMethods:
      - GET
    uri: 'api/v1/abs/{id}'
    metadata:
      groupName: Endpoints
      groupDescription: ''
      subgroup: ''
      subgroupDescription: ''
      title: 'Получить объявление.'
      description: ''
      authenticated: true
      custom: []
    headers:
      Authorization: 'Bearer {YOUR_AUTH_KEY}'
      Content-Type: application/json
      Accept: application/json
    urlParameters:
      id:
        name: id
        description: 'The ID of the ab.'
        required: true
        example: 1
        type: integer
        enumValues: []
        exampleWasSpecified: false
        custom: []
    cleanUrlParameters:
      id: 1
    queryParameters:
      fields:
        name: fields
        description: ''
        required: true
        example:
          - quia
        type: 'string[]'
        enumValues: []
        exampleWasSpecified: false
        custom: []
    cleanQueryParameters:
      fields:
        - quia
    bodyParameters:
      fields:
        name: fields
        description: ''
        required: false
        example: null
        type: object
        enumValues: []
        exampleWasSpecified: false
        custom: []
    cleanBodyParameters: []
    fileParameters: []
    responses:
      -
        status: 200
        content: '{"ab":{"abId":1,"name":"johkvmpxr","price":"1234.00","photoLink":{"id":1,"ab_id":1,"link":"1","created_at":"2024-07-29T05:17:25.000000Z","updated_at":"2024-07-29T05:17:25.000000Z"}}}'
        headers:
          cache-control: 'no-cache, private'
          content-type: application/json
          access-control-allow-origin: 'http://localhost:3000'
          access-control-allow-credentials: 'true'
        description: null
        custom: []
    responseFields: []
    auth:
      - headers
      - Authorization
      - 'Bearer vb8agZf1Dh54adPk3e6cVE6'
    controller: null
    method: null
    route: null
    custom: []
  -
    httpMethods:
      - PUT
      - PATCH
    uri: 'api/v1/abs/{id}'
    metadata:
      groupName: Endpoints
      groupDescription: ''
      subgroup: ''
      subgroupDescription: ''
      title: 'Update the specified resource in storage.'
      description: ''
      authenticated: true
      custom: []
    headers:
      Authorization: 'Bearer {YOUR_AUTH_KEY}'
      Content-Type: application/json
      Accept: application/json
    urlParameters:
      id:
        name: id
        description: 'The ID of the ab.'
        required: true
        example: 1
        type: integer
        enumValues: []
        exampleWasSpecified: false
        custom: []
    cleanUrlParameters:
      id: 1
    queryParameters: []
    cleanQueryParameters: []
    bodyParameters: []
    cleanBodyParameters: []
    fileParameters: []
    responses: []
    responseFields: []
    auth:
      - headers
      - Authorization
      - 'Bearer 16cfkegEDaah85Vb4v36PdZ'
    controller: null
    method: null
    route: null
    custom: []
  -
    httpMethods:
      - DELETE
    uri: 'api/v1/abs/{id}'
    metadata:
      groupName: Endpoints
      groupDescription: ''
      subgroup: ''
      subgroupDescription: ''
      title: 'Remove the specified resource from storage.'
      description: ''
      authenticated: true
      custom: []
    headers:
      Authorization: 'Bearer {YOUR_AUTH_KEY}'
      Content-Type: application/json
      Accept: application/json
    urlParameters:
      id:
        name: id
        description: 'The ID of the ab.'
        required: true
        example: 1
        type: integer
        enumValues: []
        exampleWasSpecified: false
        custom: []
    cleanUrlParameters:
      id: 1
    queryParameters: []
    cleanQueryParameters: []
    bodyParameters: []
    cleanBodyParameters: []
    fileParameters: []
    responses: []
    responseFields: []
    auth:
      - headers
      - Authorization
      - 'Bearer 8c4dhfEavZDk3bP6e6g1a5V'
    controller: null
    method: null
    route: null
    custom: []
